<?xml version="1.0" encoding="UTF-8"?>
<svg id="Layer_1" data-name="Layer 1" xmlns="http://www.w3.org/2000/svg" viewBox="0 0 570.4 578.92">
  <defs>
    <style>
      .cls-1 {
        fill: none;
        stroke: #fffafb;
        stroke-miterlimit: 10;
        stroke-width: 9px;
      }

      .cls-2 {
        fill: #ffcdd2;
        font-family: Poppins-Bold, Poppins;
        font-size: 118px;
        font-weight: 700;
      }
    </style>
  </defs>
  <text class="cls-2" transform="translate(0 416.85)"><tspan x="0" y="0">Agusti</tspan></text>
  <polyline class="cls-1" points="4.9 310.18 4.9 4.5 565.9 4.5 565.9 502.61 424.22 502.61"/>
  <text class="cls-2" transform="translate(234.98 507.41)"><tspan x="0" y="0">PC</tspan></text>
</svg>